{
  "project_info": {
    "project_number": "354740755937",
    "project_id": "find-your-museum"
  },
  "client": [
    {
      "client_info": {
        "mobilesdk_app_id": "1:354740755937:android:ebf1481fbc3ba251",
        "android_client_info": {
          "package_name": "com.museumfinder.evag.findyourmuseum"
        }
      },
      "oauth_client": [
        {
          "client_id": "354740755937-37j2215a4lcnanrtuebmqfh36sfdl27v.apps.googleusercontent.com",
          "client_type": 1,
          "android_info": {
            "package_name": "com.museumfinder.evag.findyourmuseum",
            "certificate_hash": "cec610a1a65c9810eccc29197eae278876405281"
          }
        },
        {
          "client_id": "354740755937-p7bkgrui0v0foh8k1msg5qh0l12aru4k.apps.googleusercontent.com",
          "client_type": 3
        }
      ],
      "api_key": [
        {
          "current_key": "AIzaSyBb48AFe7aC0kw1YZyGPOSbNHOvY6hpTV0"
        }
      ],
      "services": {
        "analytics_service": {
          "status": 1
        },
        "appinvite_service": {
          "status": 1,
          "other_platform_oauth_client": []
        },
        "ads_service": {
          "status": 1
        }
      }
    }
  ],
  "configuration_version": "1"
}